<svg xmlns="http://www.w3.org/2000/svg" viewBox="0 0 1200 1200">
    <defs>
        <style>.cls-1{font-size:83.51px;font-family:SegoeUI, Segoe UI;letter-spacing:-0.01em;}.cls-1,.cls-19{fill:#5ad10d;}.cls-2{letter-spacing:-0.03em;}.cls-3{letter-spacing:-0.05em;}.cls-4{letter-spacing:-0.01em;}.cls-5{letter-spacing:0em;}.cls-6{letter-spacing:0.04em;}.cls-7{letter-spacing:-0.01em;}.cls-8{letter-spacing:-0.01em;}.cls-9{letter-spacing:-0.02em;}.cls-10{letter-spacing:-0.04em;}.cls-11{letter-spacing:-0.03em;}.cls-12{letter-spacing:0.01em;}.cls-13{letter-spacing:-0.02em;}.cls-14{letter-spacing:-0.05em;}.cls-15{font-size:158.12px;font-family:SegoeUI-Bold, Segoe UI;font-weight:700;letter-spacing:-0.03em;}.cls-15,.cls-20{fill:#fff;}.cls-16{letter-spacing:-0.03em;}.cls-17{letter-spacing:0em;}.cls-18{letter-spacing:-0.03em;}</style>
    </defs>
    <title>NoMercy-logo-wide</title>
    <g id="NoMercy-logo-wide">
        <rect id="background" y="3" width="1200" height="1200"/>
        <g id="logo">
            <text class="cls-1" transform="translate(310.47 700.07) scale(1.14 1)">T<tspan class="cls-2" x="42.59" y="0">he</tspan>
                <tspan class="cls-3" x="128.67" y="0"></tspan>
                <tspan class="cls-2" x="147.21" y="0">e</tspan>
                <tspan class="cls-4" x="188.46" y="0">f</tspan>
                <tspan class="cls-5" x="213.68" y="0">f</tspan>
                <tspan class="cls-2" x="240.15" y="0">o</tspan>
                <tspan class="cls-6" x="286.66" y="0">r</tspan>
                <tspan class="cls-7" x="319.12" y="0">t</tspan>
                <tspan class="cls-4" x="346.33" y="0">l</tspan>
                <tspan class="cls-8" x="365.64" y="0">e</tspan>
                <tspan class="cls-9" x="408.48" y="0">s</tspan>
                <tspan class="cls-10" x="442.08" y="0">s</tspan>
                <tspan class="cls-11" x="474.17" y="0"></tspan>
                <tspan class="cls-12" x="494.63" y="0">E</tspan>
                <tspan class="cls-13" x="537.87" y="0">n</tspan>
                <tspan class="cls-11" x="583.63" y="0">c</tspan>
                <tspan class="cls-14" x="619.78" y="0">o</tspan>
                <tspan class="cls-2" x="664.79" y="0">der</tspan>
            </text>
            <text class="cls-15" transform="translate(301 600.02)">NoMe<tspan class="cls-16" x="439.48" y="0">r</tspan>
                <tspan x="497.05" y="0">cy </tspan>
                <tspan class="cls-17" x="687.41" y="0">T</tspan>
                <tspan class="cls-18" x="779.88" y="0">V</tspan>
            </text>
            <g id="logo-2" data-name="logo">
                <polygon id="nm" class="cls-19" points="291.05 490.82 291.05 712.76 250.56 712.76 250.56 544.69 215.42 576.43 201.59 589.87 161.05 548.43 161.05 712.76 123.12 664.29 119.78 660.28 130 653.51 94.6 630.08 40.49 565.16 40.49 712.76 0 712.76 0 491.13 39.99 491.13 40.49 491.77 119.95 594.01 119.95 490.82 161.05 490.82 161.05 491.45 161.38 491.12 202.83 533.49 249.88 490.97 250.56 491.71 250.56 490.82 291.05 490.82"/>
                <g id="pause">
                    <rect id="p-right" class="cls-20" x="161.05" y="593.42" width="24.36" height="119.34"/>
                    <rect id="p-left" class="cls-20" x="226.2" y="593.42" width="24.36" height="119.34"/>
                </g>
                <polygon id="play" class="cls-20" points="130 653.51 119.78 660.28 40.49 712.76 40.49 594.26 94.6 630.08 130 653.51"/>
            </g>
        </g>
    </g>
</svg>
