<svg version="1.1"
    xmlns="http://www.w3.org/2000/svg"
    xmlns:xlink="http://www.w3.org/1999/xlink" x="0px" y="000px" viewBox="0 0 1000 1000" enable-background="0 0 1000 1000">
    <g>
        <path style="fill:#ffffff" d="M295.8,459.2V336.7h-81.7v326.7h81.7V540.8h81.7v122.5h81.7V336.7h-81.7v122.5H295.8z M10,254.8c0-45,37.2-81.4,81.9-81.4h816.3c45.2,0,81.9,37,81.9,81.4v490.5c0,45-37.2,81.4-81.9,81.4H91.9c-45.2,0-81.9-37-81.9-81.4V254.8z M683.8,581.7h-61.4c-0.1,0,0.1,0.2,0.1,0.1V418.3c0,0.1,0,0.1-0.1,0.1h81.8c0.1,0-0.1-0.2-0.1-0.1v163.5c0-0.1,0-0.1,0.1-0.1L683.8,581.7l102,0V418.3c0-45.4-36.5-81.6-81.6-81.6h-81.8c-44.9,0-81.6,36.5-81.6,81.6v163.5c0,45.4,36.5,81.6,81.6,81.6h61.4h142.9v-81.7h-40.8L683.8,581.7L683.8,581.7z"/>
    </g>
</svg>
