<svg xmlns="http://www.w3.org/2000/svg" viewBox="0 0 2000 2000">
  <title>logo-transparent</title>
  <g>
    <polygon points="1797 390 1797 1610 1575.22 1610 1575.22 686.08 1382.84 860.59 1307.06 934.5 1085.01 706.65 1085.01 1610 877.3 1343.6 859 1321.53 914.99 1284.3 721.13 1155.51 424.78 798.6 424.78 1610 203 1610 203 391.65 421.98 391.65 424.78 395.19 859.93 957.23 859.93 390 1085.01 390 1085.01 393.42 1086.88 391.65 1313.82 624.52 1571.54 390.83 1575.22 394.85 1575.22 390 1797 390" style="fill: #9a1dce"/>
    <g>
      <rect x="1085" y="954" width="133.31" height="656" style="fill: #999"/>
      <rect x="1441.69" y="954" width="133.31" height="656" style="fill: #999"/>
    </g>
    <polygon points="915 1284 858.8 1321.21 423 1609.5 423 958.5 720.43 1155.29 915 1284" style="fill: #999"/>
  </g>
</svg>
