<svg xmlns="http://www.w3.org/2000/svg" width="20" height="20" viewBox="0 0 20 20">
  <path fill="#ad1457" d="M12.078 10h2.3V6.007h2.32V10H19l-3.46 3.993zM1 13.993V6.007h2.32l2.355 2.917L8.03 6.007h2.32v7.986H8.03V9.398l-2.355 2.887L3.32 9.398v4.595z"/>
</svg>
